Diabetes Modeling
…
conflicts_prefer(dplyr::lag)
conflicts_prefer(dplyr::filter)
tidymodels_prefer()

options(scipen = 999, digits = 2)

Read data

diabetes <- readRDS("data/diabetes.rds")
diabetes

# A tibble: 253,680 × 22
   Diabetes HighBP HighChol CholCheck   BMI Smoker Stroke HeartDiseaseorAttack
   <fct>    <fct>  <fct>    <fct>     <dbl> <fct>  <fct>  <fct>               
 1 No       Yes    Yes      Yes          40 Yes    No     No                  
 2 No       No     No       No           25 Yes    No     No                  
 3 No       Yes    Yes      Yes          28 No     No     No                  
 4 No       Yes    No       Yes          27 No     No     No                  
 5 No       Yes    Yes      Yes          24 No     No     No                  
 6 No       Yes    Yes      Yes          25 Yes    No     No                  
 7 No       Yes    No       Yes          30 Yes    No     No                  
 8 No       Yes    Yes      Yes          25 Yes    No     No                  
 9 Yes      Yes    Yes      Yes          30 Yes    No     Yes                 
10 No       No     No       Yes          24 No     No     No                  
# ℹ 253,670 more rows
# ℹ 14 more variables: PhysActivity <fct>, Fruits <fct>, Veggies <fct>,
#   HvyAlcoholConsump <fct>, AnyHealthcare <fct>, NoDocbcCost <fct>,
#   GenHlth <dbl>, MentHlth <dbl>, PhysHlth <dbl>, DiffWalk <fct>, Sex <fct>,
#   Age <ord>, Education <ord>, Income <ord>
…
Create recipe

placeholder text

diabetes_rec <-
  recipe(Diabetes ~ ., data = diabetes_train) |>
  step_rm(CholCheck, Smoker, Stroke, Fruits:NoDocbcCost) #|>
  #step_normalize(all_numeric_predictors()) |>
  #step_pca(ends_with("Hlth"), num_comp = 3, prefix = "Hlth")

diabetes_rec |>
  prep(training = diabetes_train) |>
  bake(diabetes_train)

# A tibble: 177,575 × 14
   HighBP HighChol   BMI HeartDiseaseorAttack PhysActivity GenHlth MentHlth
   <fct>  <fct>    <dbl> <fct>                <fct>          <dbl>    <dbl>
 1 No     No          25 No                   Yes                3        0
 2 Yes    Yes         28 No                   No                 5       30
 3 Yes    No          27 No                   Yes                2        0
 4 Yes    No          30 No                   No                 3        0
 5 Yes    Yes         25 No                   Yes                3        0
 6 No     No          24 No                   No                 2        0
 7 No     Yes         33 No                   Yes                4       30
 8 Yes    No          33 No                   Yes                2        5
 9 Yes    Yes         21 No                   Yes                3        0
10 Yes    Yes         38 No                   No                 5       15
# ℹ 177,565 more rows
# ℹ 7 more variables: PhysHlth <dbl>, DiffWalk <fct>, Sex <fct>, Age <ord>,
#   Education <ord>, Income <ord>, Diabetes <fct>
…
